#Haynesville Data 
0.01 0.0944795501671
0.03 0.230035643086
0.04 0.271917608246
0.05 0.277590583459
0.07 0.270691965453
0.08 0.259661180314
0.1 0.247614862576
0.11 0.235813673397
0.12 0.224677833162
0.14 0.2143824337
0.15 0.204892456644
0.16 0.196242920362
0.18 0.188258733023
0.19 0.180974912996
0.21 0.174251386816
0.22 0.168088154485
0.23 0.16234514254
0.25 0.157057369347
0.26 0.152119779809
0.27 0.147532373926
0.29 0.143225114968
0.3 0.139233021299
0.32 0.135451037823
0.33 0.131914182906
0.34 0.128587438181
0.36 0.125435785285
0.37 0.122459224216
0.38 0.119657754974
0.4 0.116961340829
0.41 0.114440018512
0.42 0.112023751292
0.44 0.109747557533
0.45 0.107541400505
0.47 0.105440298574
0.48 0.103444251739
0.49 0.101553260001
0.51 0.0996972866293
0.52 0.0979463683532
0.53 0.0962654868083
0.55 0.0946546419946
0.56 0.0930788155461
0.58 0.0915730258292
0.59 0.0901372728426
0.6 0.0887365382221
0.62 0.0874058403323
0.63 0.0861101608082
0.64 0.0848494996496
0.66 0.0836588752218
0.67 0.0824682507944
0.68 0.0813476630978
0.7 0.0802270754012
0.71 0.0791765244358
0.73 0.0781609918356
0.74 0.0771454592358
0.75 0.0761649450011
0.77 0.0752194491321
0.78 0.0743089716287
0.79 0.0734335124908
0.81 0.072558053353
0.82 0.0717176125803
0.84 0.0709121901737
0.85 0.0701067677666
0.86 0.0693363637252
0.88 0.0685659596837
0.89 0.0678305740078
0.9 0.067095188332
0.92 0.0663948210217
0.93 0.065729472077
0.95 0.0650641231319
0.96 0.0643987741873
0.97 0.0637684436078
0.99 0.0631381130287
1.0 0.0625428008148
1.01 0.0619474886009
1.03 0.061352176387
1.04 0.0607918825387
1.05 0.0602315886904
1.07 0.0596712948425
1.08 0.0591460193594
1.1 0.0586207438767
1.11 0.058095468394
1.12 0.0576052112769
1.14 0.0571149541594
1.15 0.0566246970422
1.16 0.0561694582907
1.18 0.0556792011732
1.19 0.0552239624217
1.21 0.0548037420354
1.22 0.0543485032835
1.23 0.0539282828975
1.25 0.0535080625112
1.26 0.0530878421249
1.27 0.0526676217386
1.29 0.0522824197182
1.3 0.0518972176975
1.32 0.0515120156768
1.33 0.051126813656
1.34 0.0507416116353
1.36 0.0503914279802
1.37 0.050041244325
1.38 0.0496910606699
1.4 0.0493408770148
1.41 0.0489906933592
1.42 0.0486405097041
1.44 0.0483253444145
1.45 0.0479751607594
1.47 0.0476599954699
1.48 0.0473448301799
1.49 0.0470296648904
1.51 0.0467495179664
1.52 0.0464343526765
1.53 0.0461191873869
1.55 0.045839040463
1.56 0.0455588935386
1.58 0.0452787466147
1.59 0.0449985996903
1.6 0.0447184527664
1.62 0.044438305842
1.63 0.0441581589181
1.64 0.0439130303593
1.66 0.043632883435
1.67 0.0433877548766
1.68 0.0431426263179
1.7 0.0428974977591
1.71 0.0426523692008
1.73 0.042407240642
1.74 0.0421621120832
1.75 0.0419169835249
1.77 0.0416718549661
1.78 0.041461744773
1.79 0.0412166162146
1.81 0.0410065060213
1.82 0.0407613774627
1.84 0.0405512672696
1.85 0.0403411570765
1.86 0.0401310468834
1.88 0.0399209366903
1.89 0.0397108264972
1.9 0.0395007163041
1.92 0.039290606111
1.93 0.0390804959178
1.95 0.0389054040903
1.96 0.0386952938971
1.97 0.0384851837041
1.99 0.0383100918765
2.0 0.0381350000489
2.01 0.0379248898558
2.03 0.0377497980282
2.04 0.0375747062006
2.05 0.037399614373
2.07 0.0371895041799
2.08 0.0370144123523
2.1 0.0368393205247
2.11 0.0366642286971
2.12 0.0364891368695
2.14 0.0363490634075
2.15 0.0361739715799
2.16 0.0359988797523
2.18 0.0358237879247
2.19 0.0356837144626
2.21 0.035508622635
2.22 0.035368549173
2.23 0.0351934573454
2.25 0.0350533838833
2.26 0.0348782920557
2.27 0.0347382185937
2.29 0.0345981451316
2.3 0.034423053304
2.32 0.0342829798419
2.33 0.0341429063798
2.34 0.0340028329178
2.36 0.0338627594557
2.37 0.0337226859936
2.38 0.0335826125316
2.4 0.0334425390695
2.41 0.0333024656074
2.42 0.0331623921453
2.44 0.0330223186833
2.45 0.0328822452212
2.47 0.0327421717591
2.48 0.0326371166626
2.49 0.0324970432005
2.51 0.0323569697384
2.52 0.0322519146419
2.53 0.0321118411798
2.55 0.0319717677177
2.56 0.0318667126212
2.58 0.0317266391591
2.59 0.0316215840626
2.6 0.0314815106005
2.62 0.0313764555039
2.63 0.0312714004074
2.64 0.0311313269453
2.66 0.0310262718488
2.67 0.0309212167522
2.68 0.0307811432901
2.7 0.0306760881936
2.71 0.030571033097
2.73 0.0304659780005
2.74 0.0303259045384
2.75 0.0302208494419
2.77 0.0301157943453
2.78 0.0300107392487
2.79 0.0299056841522
2.81 0.0298006290557
2.82 0.0296955739591
2.84 0.0295905188625
2.85 0.029485463766
2.86 0.0293804086694
2.88 0.0292753535729
2.89 0.0291702984763
2.9 0.0290652433797
2.92 0.0289952066487
2.93 0.0288901515522
2.95 0.0287850964556
2.96 0.0286800413591
2.97 0.0285749862625
2.99 0.0285049495315
3.0 0.0283998944349
3.01 0.0282948393384
3.03 0.0282248026073
3.04 0.0281197475108
3.05 0.0280146924142
3.07 0.0279446556832
3.08 0.0278396005866
3.1 0.0277695638556
3.11 0.027664508759
3.12 0.027594472028
3.14 0.0274894169315
3.15 0.0274193802004
3.16 0.0273143251039
3.18 0.0272442883728
3.19 0.0271392332763
3.21 0.0270691965453
3.22 0.0269641414487
3.23 0.0268941047177
3.25 0.0268240679866
3.26 0.0267190128901
3.27 0.026648976159
3.29 0.026578939428
3.3 0.0264738843315
3.32 0.0264038476004
3.33 0.0263338108694
3.34 0.0262637741383
3.36 0.0261587190418
3.37 0.0260886823108
3.38 0.0260186455797
3.4 0.0259486088487
3.41 0.0258435537521
3.42 0.0257735170211
3.44 0.0257034802901
3.45 0.025633443559
3.47 0.025563406828
3.48 0.0254933700969
3.49 0.0254233333659
3.51 0.0253532966349
3.52 0.0252832599038
3.53 0.0252132231728
3.55 0.0251431864418
3.56 0.0250731497107
3.58 0.0250031129797
3.59 0.0249330762486
3.6 0.0248630395176
3.62 0.0247930027866
3.63 0.0247229660556
3.64 0.0246529293245
3.66 0.0245828925935
3.67 0.0245128558624
3.68 0.0244428191314
3.7 0.0243727824004
3.71 0.0243027456694
3.73 0.0242327089383
3.74 0.0241626722073
3.75 0.0241276538418
3.77 0.0240576171107
3.78 0.0239875803797
3.79 0.0239175436486
3.81 0.0238475069176
3.82 0.0238124885521
3.84 0.0237424518211
3.85 0.02367241509
3.86 0.023602378359
3.88 0.0235673599935
3.89 0.0234973232624
3.9 0.0234272865314
3.92 0.0233572498004
3.93 0.0233222314349
3.95 0.0232521947038
3.96 0.0231821579728
3.97 0.0231471396072
3.99 0.0230771028762
4.0 0.0230070661452
4.01 0.0229720477797
4.03 0.0229020110487
4.04 0.0228319743176
4.05 0.0227969559521
4.07 0.022726919221
4.08 0.0226919008555
4.1 0.0226218641245
4.11 0.0225518273934
4.12 0.0225168090279
4.14 0.0224467722969
4.15 0.0224117539314
4.16 0.0223417172004
4.18 0.0223066988348
4.19 0.0222366621038
4.21 0.0222016437383
4.22 0.0221316070072
4.23 0.0220965886417
4.25 0.0220265519107
4.26 0.0219915335452
4.27 0.0219214968142
4.29 0.0218864784486
4.3 0.0218164417176
4.32 0.0217814233521
4.33 0.021711386621
4.34 0.0216763682555
4.36 0.0216063315245
4.37 0.021571313159
4.38 0.0215362947935
4.4 0.0214662580624
4.41 0.0214312396969
4.42 0.0213612029659
4.44 0.0213261846003
4.45 0.0212911662348
4.47 0.0212211295038
4.48 0.0211861111383
4.49 0.0211510927727
4.51 0.0210810560417
4.52 0.0210460376762
4.53 0.0210110193107
4.55 0.0209409825796
4.56 0.0209059642141
4.58 0.0208709458486
4.59 0.0208009091176
4.6 0.020765890752
4.62 0.0207308723865
4.63 0.0206608356555
4.64 0.02062581729
4.66 0.0205907989245
4.67 0.020555780559
4.68 0.0204857438279
4.7 0.0204507254624
4.71 0.0204157070969
4.73 0.0203806887313
4.74 0.0203106520003
4.75 0.0202756336348
4.77 0.0202406152693
4.78 0.0202055969038
4.79 0.0201705785383
4.81 0.0201005418072
4.82 0.0200655234417
4.84 0.0200305050762
4.85 0.0199954867107
4.86 0.0199604683451
4.88 0.0198904316141
4.89 0.0198554132486
4.9 0.0198203948831
4.92 0.0197853765175
4.93 0.019750358152
4.95 0.0197153397865
4.96 0.0196453030555
4.97 0.01961028469
4.99 0.0195752663245
5.0 0.0195402479589
5.01 0.0195052295934
5.03 0.0194702112279
5.04 0.0194351928624
5.05 0.0194001744968
5.07 0.0193651561313
5.08 0.0192951194003
5.1 0.0192601010348
5.11 0.0192250826693
5.12 0.0191900643038
5.14 0.0191550459382
5.15 0.0191200275727
5.16 0.0190850092072
5.18 0.0190499908417
5.19 0.0190149724762
5.21 0.0189799541106
5.22 0.0189449357451
5.23 0.0189099173796
5.25 0.0188748990141
5.26 0.0188398806486
5.27 0.0188048622831
5.29 0.0187698439176
5.3 0.018734825552
5.32 0.0186998071865
5.33 0.018664788821
5.34 0.0186297704555
5.36 0.0185947520899
5.37 0.0185597337244
5.38 0.0185247153589
5.4 0.0184896969934
5.41 0.0184546786279
5.42 0.0184196602623
5.44 0.0183846418968
5.45 0.0183496235313
5.47 0.0183146051658
5.48 0.0182795868003
5.49 0.0182445684348
5.51 0.0182095500693
5.52 0.0181745317037
5.53 0.0181395133382
5.55 0.0181044949727
5.56 0.0180694766072
5.58 0.0180344582416
5.59 0.0179994398761
5.6 0.0179644215106
5.62 0.0179294031451
5.63 0.0179294031451
5.64 0.0178943847796
5.66 0.0178593664141
5.67 0.0178243480486
5.68 0.0177893296831
5.7 0.0177543113175
5.71 0.017719292952
5.73 0.0176842745865
5.74 0.017649256221
5.75 0.0176142378554
5.77 0.0176142378554
5.78 0.0175792194899
5.79 0.0175442011244
5.81 0.0175091827589
5.82 0.0174741643934
5.84 0.0174391460279
5.85 0.0174041276624
5.86 0.0173691092968
5.88 0.0173691092968
5.89 0.0173340909313
5.9 0.0172990725658
5.92 0.0172640542003
5.93 0.0172290358348
5.95 0.0171940174692
5.96 0.0171940174692
5.97 0.0171589991037
5.99 0.0171239807382
6.0 0.0170889623727
6.01 0.0170539440072
6.03 0.0170539440072
6.04 0.0170189256416
6.05 0.0169839072761
6.07 0.0169488889106
6.08 0.0169138705451
6.1 0.0168788521796
6.11 0.0168788521796
6.12 0.0168438338141
6.14 0.0168088154485
6.15 0.016773797083
6.16 0.016773797083
6.18 0.0167387787175
6.19 0.016703760352
6.21 0.0166687419865
6.22 0.0166337236209
6.23 0.0166337236209
6.25 0.0165987052554
6.26 0.0165636868899
6.27 0.0165286685244
6.29 0.0165286685244
6.3 0.0164936501589
6.32 0.0164586317934
6.33 0.0164236134279
6.34 0.0164236134279
6.36 0.0163885950623
6.37 0.0163535766968
6.38 0.0163185583313
6.4 0.0163185583313
6.41 0.0162835399658
6.42 0.0162485216002
6.44 0.0162135032347
6.45 0.0162135032347
6.47 0.0161784848692
6.48 0.0161434665037
6.49 0.0161434665037
6.51 0.0161084481382
6.52 0.0160734297727
6.53 0.0160384114072
6.55 0.0160384114072
6.56 0.0160033930416
6.58 0.0159683746761
6.59 0.0159683746761
6.6 0.0159333563106
6.62 0.0158983379451
6.63 0.0158983379451
6.64 0.0158633195796
6.66 0.015828301214
6.67 0.015828301214
6.68 0.0157932828485
6.7 0.015758264483
6.71 0.0157232461175
6.73 0.0157232461175
6.74 0.015688227752
6.75 0.0156532093864
6.77 0.0156532093864
6.78 0.0156181910209
6.79 0.0155831726554
6.81 0.0155831726554
6.82 0.0155481542899
6.84 0.0155131359244
6.85 0.0155131359244
6.86 0.0154781175589
6.88 0.0154781175589
6.89 0.0154430991934
6.9 0.0154080808278
6.92 0.0154080808278
6.93 0.0153730624623
6.95 0.0153380440968
6.96 0.0153380440968
6.97 0.0153030257313
6.99 0.0152680073657
7.0 0.0152680073657
7.01 0.0152329890002
7.03 0.0152329890002
7.04 0.0151979706347
7.05 0.0151629522692
7.07 0.0151629522692
7.08 0.0151279339037
7.1 0.0150929155382
7.11 0.0150929155382
7.12 0.0150578971727
7.14 0.0150578971727
7.15 0.0150228788071
7.16 0.0149878604416
7.18 0.0149878604416
7.19 0.0149528420761
7.21 0.0149528420761
7.22 0.0149178237106
7.23 0.0148828053451
7.25 0.0148828053451
7.26 0.0148477869795
7.27 0.0148477869795
7.29 0.014812768614
7.3 0.0147777502485
7.32 0.0147777502485
7.33 0.014742731883
7.34 0.014742731883
7.36 0.0147077135175
7.37 0.0147077135175
7.38 0.014672695152
7.4 0.0146376767865
7.41 0.0146376767865
7.42 0.0146026584209
7.44 0.0146026584209
7.45 0.0145676400554
7.47 0.0145676400554
7.48 0.0145326216899
7.49 0.0144976033244
7.51 0.0144976033244
7.52 0.0144625849588
7.53 0.0144625849588
7.55 0.0144275665933
7.56 0.0144275665933
7.58 0.0143925482278
7.59 0.0143925482278
7.6 0.0143575298623
7.62 0.0143575298623
7.63 0.0143225114968
7.64 0.0142874931312
7.66 0.0142874931312
7.67 0.0142524747657
7.68 0.0142524747657
7.7 0.0142174564002
7.71 0.0142174564002
7.73 0.0141824380347
7.74 0.0141824380347
7.75 0.0141474196692
7.77 0.0141474196692
7.78 0.0141124013037
7.79 0.0141124013037
7.81 0.0140773829382
7.82 0.0140773829382
7.84 0.0140423645726
7.85 0.0140423645726
7.86 0.0140073462071
7.88 0.0140073462071
7.89 0.0139723278416
7.9 0.0139373094761
7.92 0.0139373094761
7.93 0.0139022911105
7.95 0.0139022911105
7.96 0.013867272745
7.97 0.013867272745
7.99 0.0138322543795
8.0 0.0138322543795
8.01 0.013797236014
8.03 0.013797236014
8.04 0.0137622176485
8.05 0.0137622176485
8.07 0.013727199283
8.08 0.013727199283
8.1 0.013727199283
8.11 0.0136921809175
8.12 0.0136921809175
8.14 0.013657162552
8.15 0.013657162552
8.16 0.0136221441864
8.18 0.0136221441864
8.19 0.0135871258209
8.21 0.0135871258209
8.22 0.0135521074554
8.23 0.0135521074554
8.25 0.0135170890899
8.26 0.0135170890899
8.27 0.0134820707243
8.29 0.0134820707243
8.3 0.0134470523588
8.32 0.0134470523588
8.33 0.0134120339933
8.34 0.0134120339933
8.36 0.0133770156278
8.37 0.0133770156278
8.38 0.0133770156278
8.4 0.0133419972623
8.41 0.0133419972623
8.42 0.0133069788968
8.44 0.0133069788968
8.45 0.0132719605313
8.47 0.0132719605313
8.48 0.0132369421657
8.49 0.0132369421657
8.51 0.0132019238002
8.52 0.0132019238002
8.53 0.0132019238002
8.55 0.0131669054347
8.56 0.0131669054347
8.58 0.0131318870692
8.59 0.0131318870692
8.6 0.0130968687037
8.62 0.0130968687037
8.63 0.0130968687037
8.64 0.0130618503381
8.66 0.0130618503381
8.67 0.0130268319726
8.68 0.0130268319726
8.7 0.0129918136071
8.71 0.0129918136071
8.73 0.0129567952416
8.74 0.0129567952416
8.75 0.0129567952416
8.77 0.0129217768761
8.78 0.0129217768761
8.79 0.0128867585105
8.81 0.0128867585105
8.82 0.0128867585105
8.84 0.012851740145
8.85 0.012851740145
8.86 0.0128167217795
8.88 0.0128167217795
8.89 0.012781703414
8.9 0.012781703414
8.92 0.012781703414
8.93 0.0127466850485
8.95 0.0127466850485
8.96 0.012711666683
8.97 0.012711666683
8.99 0.012711666683
9.0 0.0126766483174
9.01 0.0126766483174
9.03 0.0126416299519
9.04 0.0126416299519
9.05 0.0126416299519
9.07 0.0126066115864
9.08 0.0126066115864
9.1 0.0125715932209
9.11 0.0125715932209
9.12 0.0125715932209
9.14 0.0125365748554
9.15 0.0125365748554
9.16 0.0125015564898
9.18 0.0125015564898
9.19 0.0125015564898
9.21 0.0124665381243
9.22 0.0124665381243
9.23 0.0124315197588
9.25 0.0124315197588
9.26 0.0124315197588
9.27 0.0123965013933
9.29 0.0123965013933
9.3 0.0123614830278
9.32 0.0123614830278
9.33 0.0123614830278
9.34 0.0123264646623
9.36 0.0123264646623
9.37 0.0123264646623
9.38 0.0122914462968
9.4 0.0122914462968
9.41 0.0122564279312
9.42 0.0122564279312
9.44 0.0122564279312
9.45 0.0122214095657
9.47 0.0122214095657
9.48 0.0122214095657
9.49 0.0121863912002
9.51 0.0121863912002
9.52 0.0121513728347
9.53 0.0121513728347
9.55 0.0121513728347
9.56 0.0121163544691
9.58 0.0121163544691
9.59 0.0121163544691
9.6 0.0120813361036
9.62 0.0120813361036
9.63 0.0120463177381
9.64 0.0120463177381
9.66 0.0120463177381
9.67 0.0120112993726
9.68 0.0120112993726
9.7 0.0120112993726
9.71 0.0119762810071
9.73 0.0119762810071
9.74 0.0119762810071
9.75 0.0119412626416
9.77 0.0119412626416
9.78 0.0119412626416
9.79 0.0119062442761
9.81 0.0119062442761
9.82 0.0119062442761
9.84 0.0118712259105
9.85 0.0118712259105
9.86 0.011836207545
9.88 0.011836207545
9.89 0.011836207545
9.9 0.0118011891795
9.92 0.0118011891795
9.93 0.0118011891795
9.95 0.011766170814
9.96 0.011766170814
9.97 0.011766170814
9.99 0.0117311524485
10.0 0.0117311524485
10.01 0.0117311524485
10.03 0.0116961340829
10.04 0.0116961340829
10.05 0.0116961340829
10.07 0.0116611157174
10.08 0.0116611157174
10.1 0.0116611157174
10.11 0.0116260973519
10.12 0.0116260973519
10.14 0.0116260973519
10.15 0.0115910789864
10.16 0.0115910789864
10.18 0.0115910789864
10.19 0.0115560606209
10.21 0.0115560606209
10.22 0.0115560606209
10.23 0.0115210422553
10.25 0.0115210422553
10.26 0.0115210422553
10.27 0.0114860238898
10.29 0.0114860238898
10.3 0.0114860238898
10.32 0.0114510055243
10.33 0.0114510055243
10.34 0.0114510055243
10.36 0.0114510055243
10.37 0.0114159871588
10.38 0.0114159871588
10.4 0.0114159871588
10.41 0.0113809687933
10.42 0.0113809687933
10.44 0.0113809687933
10.45 0.0113459504278
10.47 0.0113459504278
10.48 0.0113459504278
10.49 0.0113109320623
10.51 0.0113109320623
10.52 0.0113109320623
10.53 0.0112759136967
10.55 0.0112759136967
10.56 0.0112759136967
10.58 0.0112408953312
10.59 0.0112408953312
10.6 0.0112408953312
10.62 0.0112408953312
10.63 0.0112058769657
10.64 0.0112058769657
10.66 0.0112058769657
10.67 0.0111708586002
10.68 0.0111708586002
10.7 0.0111708586002
10.71 0.0111358402346
10.73 0.0111358402346
10.74 0.0111358402346
10.75 0.0111358402346
10.77 0.0111008218691
10.78 0.0111008218691
10.79 0.0111008218691
10.81 0.0110658035036
10.82 0.0110658035036
10.84 0.0110658035036
10.85 0.0110307851381
10.86 0.0110307851381
10.88 0.0110307851381
10.89 0.0110307851381
10.9 0.0109957667726
10.92 0.0109957667726
10.93 0.0109957667726
10.95 0.0109607484071
10.96 0.0109607484071
10.97 0.0109607484071
10.99 0.0109607484071
11.0 0.0109257300416
11.01 0.0109257300416
11.03 0.0109257300416
11.04 0.010890711676
11.05 0.010890711676
11.07 0.010890711676
11.08 0.010890711676
11.1 0.0108556933105
11.11 0.0108556933105
11.12 0.0108556933105
11.14 0.010820674945
11.15 0.010820674945
11.16 0.010820674945
11.18 0.010820674945
11.19 0.0107856565795
11.21 0.0107856565795
11.22 0.0107856565795
11.23 0.010750638214
11.25 0.010750638214
11.26 0.010750638214
11.27 0.010750638214
11.29 0.0107156198484
11.3 0.0107156198484
11.32 0.0107156198484
11.33 0.0107156198484
11.34 0.0106806014829
11.36 0.0106806014829
11.37 0.0106806014829
11.38 0.0106455831174
11.4 0.0106455831174
11.41 0.0106455831174
11.42 0.0106455831174
11.44 0.0106105647519
11.45 0.0106105647519
11.47 0.0106105647519
11.48 0.0106105647519
11.49 0.0105755463864
11.51 0.0105755463864
11.52 0.0105755463864
11.53 0.0105755463864
11.55 0.0105405280209
11.56 0.0105405280209
11.58 0.0105405280209
11.59 0.0105055096554
11.6 0.0105055096554
11.62 0.0105055096554
11.63 0.0105055096554
11.64 0.0104704912898
11.66 0.0104704912898
11.67 0.0104704912898
11.68 0.0104704912898
11.7 0.0104354729243
11.71 0.0104354729243
11.73 0.0104354729243
11.74 0.0104354729243
11.75 0.0104004545588
11.77 0.0104004545588
11.78 0.0104004545588
11.79 0.0104004545588
11.81 0.0103654361933
11.82 0.0103654361933
11.84 0.0103654361933
11.85 0.0103654361933
11.86 0.0103304178277
11.88 0.0103304178277
11.89 0.0103304178277
11.9 0.0103304178277
11.92 0.0102953994622
11.93 0.0102953994622
11.95 0.0102953994622
11.96 0.0102953994622
11.97 0.0102603810967
11.99 0.0102603810967
12.0 0.0102603810967
12.01 0.0102603810967
12.03 0.0102253627312
12.04 0.0102253627312
12.05 0.0102253627312
12.07 0.0102253627312
12.08 0.0101903443657
12.1 0.0101903443657
12.11 0.0101903443657
12.12 0.0101903443657
12.14 0.0101553260001
12.15 0.0101553260001
12.16 0.0101553260001
12.18 0.0101553260001
12.19 0.0101203076346
12.21 0.0101203076346
12.22 0.0101203076346
12.23 0.0101203076346
12.25 0.0100852892691
12.26 0.0100852892691
12.27 0.0100852892691
12.29 0.0100852892691
12.3 0.0100852892691
12.32 0.0100502709036
12.33 0.0100502709036
12.34 0.0100502709036
12.36 0.0100502709036
12.37 0.0100152525381
12.38 0.0100152525381
12.4 0.0100152525381
12.41 0.0100152525381
12.42 0.00998023417257
12.44 0.00998023417257
12.45 0.00998023417257
12.47 0.00998023417257
12.48 0.00998023417257
12.49 0.00994521580706
12.51 0.00994521580706
12.52 0.00994521580706
12.53 0.00994521580706
12.55 0.00991019744154
12.56 0.00991019744154
12.58 0.00991019744154
12.59 0.00991019744154
12.6 0.00987517907603
12.62 0.00987517907603
12.63 0.00987517907603
12.64 0.00987517907603
12.66 0.00987517907603
12.67 0.00984016071052
12.68 0.00984016071052
12.7 0.00984016071052
12.71 0.00984016071052
12.73 0.00980514234496
12.74 0.00980514234496
12.75 0.00980514234496
12.77 0.00980514234496
12.78 0.00980514234496
12.79 0.00977012397945
12.81 0.00977012397945
12.82 0.00977012397945
12.84 0.00977012397945
12.85 0.00973510561393
12.86 0.00973510561393
12.88 0.00973510561393
12.89 0.00973510561393
12.9 0.00973510561393
12.92 0.00970008724842
12.93 0.00970008724842
12.95 0.00970008724842
12.96 0.00970008724842
12.97 0.00966506888291
12.99 0.00966506888291
13.0 0.00966506888291
13.01 0.00966506888291
13.03 0.00966506888291
13.04 0.00963005051739
13.05 0.00963005051739
13.07 0.00963005051739
13.08 0.00963005051739
13.1 0.00963005051739
13.11 0.00959503215188
13.12 0.00959503215188
13.14 0.00959503215188
13.15 0.00959503215188
13.16 0.00956001378637
13.18 0.00956001378637
13.19 0.00956001378637
13.21 0.00956001378637
13.22 0.00956001378637
13.23 0.00952499542085
13.25 0.00952499542085
13.26 0.00952499542085
13.27 0.00952499542085
13.29 0.00952499542085
13.3 0.00948997705534
13.32 0.00948997705534
13.33 0.00948997705534
13.34 0.00948997705534
13.36 0.00948997705534
13.37 0.00945495868978
13.38 0.00945495868978
13.4 0.00945495868978
13.41 0.00945495868978
13.42 0.00945495868978
13.44 0.00941994032427
13.45 0.00941994032427
13.47 0.00941994032427
13.48 0.00941994032427
13.49 0.00941994032427
13.51 0.00938492195876
13.52 0.00938492195876
13.53 0.00938492195876
13.55 0.00938492195876
13.56 0.00938492195876
13.58 0.00934990359324
13.59 0.00934990359324
13.6 0.00934990359324
13.62 0.00934990359324
13.63 0.00934990359324
13.64 0.00931488522773
13.66 0.00931488522773
13.67 0.00931488522773
13.68 0.00931488522773
13.7 0.00931488522773
13.71 0.00927986686222
13.73 0.00927986686222
13.74 0.00927986686222
13.75 0.00927986686222
13.77 0.00927986686222
13.78 0.0092448484967
13.79 0.0092448484967
13.81 0.0092448484967
13.82 0.0092448484967
13.84 0.0092448484967
13.85 0.00920983013119
13.86 0.00920983013119
13.88 0.00920983013119
13.89 0.00920983013119
13.9 0.00920983013119
13.92 0.00917481176568
13.93 0.00917481176568
13.95 0.00917481176568
13.96 0.00917481176568
13.97 0.00917481176568
13.99 0.00917481176568
14.0 0.00913979340016
14.01 0.00913979340016
14.03 0.00913979340016
14.04 0.00913979340016
14.05 0.00913979340016
14.07 0.00910477503461
14.08 0.00910477503461
14.1 0.00910477503461
14.11 0.00910477503461
14.12 0.00910477503461
14.14 0.00906975666909
14.15 0.00906975666909
14.16 0.00906975666909
14.18 0.00906975666909
14.19 0.00906975666909
14.21 0.00906975666909
14.22 0.00903473830358
14.23 0.00903473830358
14.25 0.00903473830358
14.26 0.00903473830358
14.27 0.00903473830358
14.29 0.00899971993807
14.3 0.00899971993807
14.32 0.00899971993807
14.33 0.00899971993807
14.34 0.00899971993807
14.36 0.00899971993807
14.37 0.00896470157255
14.38 0.00896470157255
14.4 0.00896470157255
14.41 0.00896470157255
14.42 0.00896470157255
14.44 0.00892968320704
14.45 0.00892968320704
14.47 0.00892968320704
14.48 0.00892968320704
14.49 0.00892968320704
14.51 0.00892968320704
14.52 0.00889466484153
14.53 0.00889466484153
14.55 0.00889466484153
14.56 0.00889466484153
14.58 0.00889466484153
14.59 0.00885964647601
14.6 0.00885964647601
14.62 0.00885964647601
14.63 0.00885964647601
14.64 0.00885964647601
14.66 0.00885964647601
14.67 0.0088246281105
14.68 0.0088246281105
14.7 0.0088246281105
14.71 0.0088246281105
14.73 0.0088246281105
14.74 0.0088246281105
14.75 0.00878960974498
14.77 0.00878960974498
14.78 0.00878960974498
14.79 0.00878960974498
14.81 0.00878960974498
14.82 0.00878960974498
14.84 0.00875459137943
14.85 0.00875459137943
14.86 0.00875459137943
14.88 0.00875459137943
14.89 0.00875459137943
14.9 0.00875459137943
14.92 0.00871957301392
14.93 0.00871957301392
14.95 0.00871957301392
14.96 0.00871957301392
14.97 0.00871957301392
14.99 0.00871957301392
15.0 0.0086845546484
15.01 0.0086845546484
15.03 0.0086845546484
15.04 0.0086845546484
15.05 0.0086845546484
15.07 0.0086845546484
15.08 0.00864953628289
15.1 0.00864953628289
15.11 0.00864953628289
15.12 0.00864953628289
15.14 0.00864953628289
15.15 0.00864953628289
15.16 0.00861451791738
15.18 0.00861451791738
15.19 0.00861451791738
15.21 0.00861451791738
15.22 0.00861451791738
15.23 0.00861451791738
15.25 0.00857949955186
15.26 0.00857949955186
15.27 0.00857949955186
15.29 0.00857949955186
15.3 0.00857949955186
15.32 0.00857949955186
15.33 0.00854448118635
15.34 0.00854448118635
15.36 0.00854448118635
15.37 0.00854448118635
15.38 0.00854448118635
15.4 0.00854448118635
15.41 0.00850946282083
15.42 0.00850946282083
15.44 0.00850946282083
15.45 0.00850946282083
15.47 0.00850946282083
15.48 0.00850946282083
15.49 0.00847444445532
15.51 0.00847444445532
15.52 0.00847444445532
15.53 0.00847444445532
15.55 0.00847444445532
15.56 0.00847444445532
15.58 0.00847444445532
15.59 0.00843942608981
15.6 0.00843942608981
15.62 0.00843942608981
15.63 0.00843942608981
15.64 0.00843942608981
15.66 0.00843942608981
15.67 0.00840440772425
15.68 0.00840440772425
15.7 0.00840440772425
15.71 0.00840440772425
15.73 0.00840440772425
15.74 0.00840440772425
15.75 0.00840440772425
15.77 0.00836938935874
15.78 0.00836938935874
15.79 0.00836938935874
15.81 0.00836938935874
15.82 0.00836938935874
15.84 0.00836938935874
15.85 0.00833437099323
15.86 0.00833437099323
15.88 0.00833437099323
15.89 0.00833437099323
15.9 0.00833437099323
15.92 0.00833437099323
15.93 0.00833437099323
15.95 0.00829935262771
15.96 0.00829935262771
15.97 0.00829935262771
15.99 0.00829935262771
16.0 0.00829935262771
16.01 0.00829935262771
16.03 0.0082643342622
16.04 0.0082643342622
16.05 0.0082643342622
16.07 0.0082643342622
16.08 0.0082643342622
16.1 0.0082643342622
16.11 0.0082643342622
16.12 0.00822931589668
16.14 0.00822931589668
16.15 0.00822931589668
16.16 0.00822931589668
16.18 0.00822931589668
16.19 0.00822931589668
16.21 0.00822931589668
16.22 0.00819429753117
16.23 0.00819429753117
16.25 0.00819429753117
16.26 0.00819429753117
16.27 0.00819429753117
16.29 0.00819429753117
16.3 0.00819429753117
16.32 0.00815927916566
16.33 0.00815927916566
16.34 0.00815927916566
16.36 0.00815927916566
16.37 0.00815927916566
16.38 0.00815927916566
16.4 0.00815927916566
16.41 0.00812426080014
16.42 0.00812426080014
16.44 0.00812426080014
16.45 0.00812426080014
16.47 0.00812426080014
16.48 0.00812426080014
16.49 0.00812426080014
16.51 0.00808924243459
16.52 0.00808924243459
16.53 0.00808924243459
16.55 0.00808924243459
16.56 0.00808924243459
16.58 0.00808924243459
16.59 0.00808924243459
16.6 0.00805422406908
16.62 0.00805422406908
16.63 0.00805422406908
16.64 0.00805422406908
16.66 0.00805422406908
16.67 0.00805422406908
16.68 0.00805422406908
16.7 0.00801920570356
16.71 0.00801920570356
16.73 0.00801920570356
16.74 0.00801920570356
16.75 0.00801920570356
16.77 0.00801920570356
16.78 0.00801920570356
16.79 0.00798418733805
16.81 0.00798418733805
16.82 0.00798418733805
16.84 0.00798418733805
16.85 0.00798418733805
16.86 0.00798418733805
16.88 0.00798418733805
16.89 0.00794916897253
16.9 0.00794916897253
16.92 0.00794916897253
16.93 0.00794916897253
16.95 0.00794916897253
16.96 0.00794916897253
16.97 0.00794916897253
16.99 0.00794916897253
17.0 0.00791415060702
17.01 0.00791415060702
17.03 0.00791415060702
17.04 0.00791415060702
17.05 0.00791415060702
17.07 0.00791415060702
17.08 0.00791415060702
17.1 0.00787913224151
17.11 0.00787913224151
17.12 0.00787913224151
17.14 0.00787913224151
17.15 0.00787913224151
17.16 0.00787913224151
17.18 0.00787913224151
17.19 0.00787913224151
17.21 0.00784411387599
17.22 0.00784411387599
17.23 0.00784411387599
17.25 0.00784411387599
17.26 0.00784411387599
17.27 0.00784411387599
17.29 0.00784411387599
17.3 0.00780909551048
17.32 0.00780909551048
17.33 0.00780909551048
17.34 0.00780909551048
17.36 0.00780909551048
17.37 0.00780909551048
17.38 0.00780909551048
17.4 0.00780909551048
17.41 0.00777407714497
17.42 0.00777407714497
17.44 0.00777407714497
17.45 0.00777407714497
17.47 0.00777407714497
17.48 0.00777407714497
17.49 0.00777407714497
17.51 0.00777407714497
17.52 0.00773905877941
17.53 0.00773905877941
17.55 0.00773905877941
17.56 0.00773905877941
17.58 0.00773905877941
17.59 0.00773905877941
17.6 0.00773905877941
17.62 0.00773905877941
17.63 0.0077040404139
17.64 0.0077040404139
17.66 0.0077040404139
17.67 0.0077040404139
17.68 0.0077040404139
17.7 0.0077040404139
17.71 0.0077040404139
17.73 0.0077040404139
17.74 0.00766902204838
17.75 0.00766902204838
17.77 0.00766902204838
17.78 0.00766902204838
17.79 0.00766902204838
17.81 0.00766902204838
17.82 0.00766902204838
17.84 0.00766902204838
17.85 0.00763400368287
17.86 0.00763400368287
17.88 0.00763400368287
17.89 0.00763400368287
17.9 0.00763400368287
17.92 0.00763400368287
17.93 0.00763400368287
17.95 0.00763400368287
17.96 0.00759898531736
17.97 0.00759898531736
17.99 0.00759898531736
18.0 0.00759898531736
18.01 0.00759898531736
18.03 0.00759898531736
18.04 0.00759898531736
18.05 0.00759898531736
18.07 0.00756396695184
18.08 0.00756396695184
18.1 0.00756396695184
18.11 0.00756396695184
18.12 0.00756396695184
18.14 0.00756396695184
18.15 0.00756396695184
18.16 0.00756396695184
18.18 0.00752894858633
18.19 0.00752894858633
18.21 0.00752894858633
18.22 0.00752894858633
18.23 0.00752894858633
18.25 0.00752894858633
18.26 0.00752894858633
18.27 0.00752894858633
18.29 0.00749393022082
18.3 0.00749393022082
18.32 0.00749393022082
18.33 0.00749393022082
18.34 0.00749393022082
18.36 0.00749393022082
18.37 0.00749393022082
18.38 0.00749393022082
18.4 0.00749393022082
18.41 0.0074589118553
18.42 0.0074589118553
18.44 0.0074589118553
18.45 0.0074589118553
18.47 0.0074589118553
18.48 0.0074589118553
18.49 0.0074589118553
18.51 0.0074589118553
18.52 0.00742389348979
18.53 0.00742389348979
18.55 0.00742389348979
18.56 0.00742389348979
18.58 0.00742389348979
18.59 0.00742389348979
18.6 0.00742389348979
18.62 0.00742389348979
18.63 0.00742389348979
18.64 0.00738887512423
18.66 0.00738887512423
18.67 0.00738887512423
18.68 0.00738887512423
18.7 0.00738887512423
18.71 0.00738887512423
18.73 0.00738887512423
18.74 0.00738887512423
18.75 0.00738887512423
18.77 0.00735385675872
18.78 0.00735385675872
18.79 0.00735385675872
18.81 0.00735385675872
18.82 0.00735385675872
18.84 0.00735385675872
18.85 0.00735385675872
18.86 0.00735385675872
18.88 0.00735385675872
18.89 0.00731883839321
18.9 0.00731883839321
18.92 0.00731883839321
18.93 0.00731883839321
18.95 0.00731883839321
18.96 0.00731883839321
18.97 0.00731883839321
18.99 0.00731883839321
19.0 0.00731883839321
19.01 0.00728382002769
19.03 0.00728382002769
19.04 0.00728382002769
19.05 0.00728382002769
19.07 0.00728382002769
19.08 0.00728382002769
19.1 0.00728382002769
19.11 0.00728382002769
19.12 0.00728382002769
19.14 0.00724880166218
19.15 0.00724880166218
19.16 0.00724880166218
19.18 0.00724880166218
19.19 0.00724880166218
19.21 0.00724880166218
19.22 0.00724880166218
19.23 0.00724880166218
19.25 0.00724880166218
19.26 0.00721378329667
19.27 0.00721378329667
19.29 0.00721378329667
19.3 0.00721378329667
19.32 0.00721378329667
19.33 0.00721378329667
19.34 0.00721378329667
19.36 0.00721378329667
19.37 0.00721378329667
19.38 0.00717876493115
19.4 0.00717876493115
19.41 0.00717876493115
19.42 0.00717876493115
19.44 0.00717876493115
19.45 0.00717876493115
19.47 0.00717876493115
19.48 0.00717876493115
19.49 0.00717876493115
19.51 0.00714374656564
19.52 0.00714374656564
19.53 0.00714374656564
19.55 0.00714374656564
19.56 0.00714374656564
19.58 0.00714374656564
19.59 0.00714374656564
19.6 0.00714374656564
19.62 0.00714374656564
19.63 0.00714374656564
19.64 0.00710872820013
19.66 0.00710872820013
19.67 0.00710872820013
19.68 0.00710872820013
19.7 0.00710872820013
19.71 0.00710872820013
19.73 0.00710872820013
19.74 0.00710872820013
19.75 0.00710872820013
19.77 0.00710872820013
19.78 0.00707370983461
19.79 0.00707370983461
19.81 0.00707370983461
19.82 0.00707370983461
19.84 0.00707370983461
19.85 0.00707370983461
19.86 0.00707370983461
19.88 0.00707370983461
19.89 0.00707370983461
19.9 0.00703869146906
19.92 0.00703869146906
19.93 0.00703869146906
19.95 0.00703869146906
19.96 0.00703869146906
19.97 0.00703869146906
19.99 0.00703869146906
20.0 0.00703869146906

FGF = 16.22334926634334

0.1 0.00176175424728
0.2 0.173676368782
0.3 0.164631365466
0.4 0.153840684064
0.5 0.14131259916
0.6 0.130444125514
0.7 0.112128271671
0.8 0.098661737716
0.9 0.09265192271
1.0 0.08287360236
1.1 0.07606209588
1.2 0.06926848077
1.3 0.0654769529
1.4 0.06126129729
1.5 0.05880400685
1.6 0.05508441724
1.7 0.05225090397
1.8 0.04750397781
1.9 0.04522010702
2.0 0.04236219083
2.1 0.04093321905
2.2 0.04001801345
2.3 0.03794100821
2.4 0.0371235293
2.5 0.03512923426
2.6 0.03488666429
2.7 0.03418964472
2.8 0.03193133806
2.9 0.03174142333
3.0 0.03106638996
3.1 0.03130146724
3.2 0.02964461313
3.3 0.02970730174
3.4 0.0299422018
3.5 0.02968187377
3.6 0.02823087796
3.7 0.02702704781
3.8 0.02644886109
3.9 0.02668322019
4.0 0.02459860288
4.1 0.02303156259
4.2 0.02326107457
4.3 0.02297729777
4.4 0.02257925402
4.5 0.02177475514
4.6 0.02146900907
4.7 0.02036060798
4.8 0.02049272396
4.9 0.02028557808
5.0 0.01970727123
5.1 0.01944623208
5.2 0.0202866402
5.3 0.02021496308
5.4 0.02013865745
5.5 0.02024155148
5.6 0.01932658491
5.7 0.01886130674
5.8 0.0187504071
5.9 0.01887063433
6.0 0.01848078922
6.1 0.01802126864
6.2 0.01820641853
6.3 0.01731566839
6.4 0.01686490051
6.5 0.01670155702
6.6 0.01611879038
6.7 0.01609826772
6.8 0.01597737775
6.9 0.01600140837
7.0 0.01592456054
7.1 0.01596803453
7.2 0.01609180783
7.3 0.01616112502
7.4 0.01630954336
7.5 0.015339644
7.6 0.01502413696
7.7 0.01498423966
7.8 0.01469901314
7.9 0.01450457351
8.0 0.01453905219
8.1 0.01478851041
8.2 0.01426521878
8.3 0.01469922138
8.4 0.01441908125
8.5 0.01391956195
8.6 0.013705596
8.7 0.01299737445
8.8 0.01324341601
8.9 0.01329588733
9.0 0.01290473918
9.1 0.01300577077
9.2 0.01304579018
9.3 0.01265241136
9.4 0.01278933663
9.5 0.01286978875
9.6 0.01254933643
9.7 0.01204535211
9.8 0.01197151132
9.9 0.01170019446
10.0 0.0111822282
10.1 0.01139153811
10.2 0.01186085262
10.3 0.01220743555
10.4 0.01225885681
10.5 0.01235956646
10.6 0.01249433858
10.7 0.01254101598
10.8 0.01218699379
10.9 0.0120553906
11.0 0.01183119872
11.1 0.0118512067
11.2 0.01179221523
11.3 0.01118978463
11.4 0.01091733341
11.5 0.01113962503
11.6 0.01087215529
11.7 0.01050890371
11.8 0.01018388142
11.9 0.00983379755
12.0 0.01013847775
12.1 0.00994112903
12.2 0.00998419868
12.3 0.00982781439
12.4 0.00969218856
12.5 0.00974636728
12.6 0.00934898638
12.7 0.00982512916
12.8 0.00985108432
12.9 0.00999301497
13.0 0.00990402352
13.1 0.00967310844
13.2 0.00968381811
13.3 0.00976519813
13.4 0.00998524343
13.5 0.00987634048
13.6 0.01003437544
13.7 0.01004907679
13.8 0.00978933376
13.9 0.0094754463
14.0 0.00898861438
14.1 0.00869443742
14.2 0.00845420319
14.3 0.00842380039
14.4 0.00882545521
14.5 0.0087457123
14.6 0.00850602029
14.7 0.00856083935
14.8 0.00887836198
14.9 0.00911614164
15.0 0.00904361419
15.1 0.00937075707
15.2 0.0095641521
15.3 0.00947571146
15.4 0.00935924689
15.5 0.00940648034
15.6 0.00929674933
15.7 0.00888694768
15.8 0.00883627006
15.9 0.00850082727
16.0 0.0083079538
16.1 0.00836735483
16.2 0.0085536152
16.3 0.0086073223
16.4 0.008579856
16.5 0.00828512295
16.6 0.00838757284
16.7 0.00806239922
16.8 0.00779696043
16.9 0.00767649556
17.0 0.00770010975
17.1 0.00767424244
17.2 0.00760559988
17.3 0.00742544152
17.4 0.00785255228
17.5 0.00809367982
17.6 0.00816635875
17.7 0.00830974392
17.8 0.00773299287
17.9 0.0073304722
18.0 0.00713405121
18.1 0.00725237986
18.2 0.00727011069
18.3 0.00724758618
18.4 0.00712823501
18.5 0.00703939166
18.6 0.00672782627
18.7 0.00678759916
18.8 0.00704388075
18.9 0.00700890971
19.0 0.00716434039
19.1 0.00700051334
19.2 0.00691943118
19.3 0.00665886708
19.4 0.00689869162
19.5 0.00696537356
19.6 0.00666542511
19.7 0.0064962793
19.8 0.00602738819
19.9 0.00599787532
20.0 0.00635701139
20.1 0.00640713651
20.2 0.00674573957
20.3 0.00697681146
20.4 0.00702063161
20.5 0.006866874
20.6 0.0067496073
20.7 0.00723200351
20.8 0.00735444252
20.9 0.00715213827
21.0 0.00694588547
21.1 0.00694380262
21.2 0.00698545223
21.3 0.00719895682
21.4 0.00728999991
21.5 0.0070284306
21.6 0.00699284678
21.7 0.00677513369
21.8 0.00653333654
21.9 0.00638684448
22.0 0.00650183731
22.1 0.00637291935
22.2 0.00606313554
22.3 0.00602932287
22.4 0.00601075555
22.5 0.00626201102
22.6 0.00637506571
22.7 0.00643369223
22.8 0.00646937589
22.9 0.00620845376
23.0 0.00644692536
23.1 0.00632262902
23.2 0.00621862471
23.3 0.00601009635
23.4 0.00589819314
23.5 0.00593539149
23.6 0.00601297947
23.7 0.00606342297
23.8 0.00591519587
23.9 0.00588257262
24.0 0.0057088741
24.1 0.00545171287
24.2 0.00533592136
24.3 0.00521970469
24.4 0.00546563104
24.5 0.00539914191
24.6 0.00550988663
24.7 0.00566679242
24.8 0.00578769791
24.9 0.00574562839
25.0 0.00588037457
25.1 0.00607821043
25.2 0.00643003632
25.3 0.00629437437
25.4 0.00602732969
25.5 0.00614298002
25.6 0.0060334987
25.7 0.00600693607
25.8 0.00586631174
25.9 0.00595944972
26.0 0.00581115196
26.1 0.00566491629
26.2 0.00559050753
26.3 0.00584307112
26.4 0.00587784594
26.5 0.00545851538
26.6 0.00528757432
26.7 0.00495996505
26.8 0.0050251667
26.9 0.00483391297
27.0 0.00480500941
27.1 0.00488960292
27.2 0.00486911293
27.3 0.00485964939
27.4 0.00495563949
27.5 0.00534555017
27.6 0.00573645745
27.7 0.00572549127
27.8 0.00551125683
27.9 0.00535524087
28.0 0.00502039535
28.1 0.00468456872
28.2 0.00465129135
28.3 0.00480633822
28.4 0.00483612997
28.5 0.00461256795
28.6 0.00447875129
28.7 0.00455179164
28.8 0.00457882931
28.9 0.00424273593
29.0 0.00441940017
29.1 0.00453625375
29.2 0.00472610982
29.3 0.00474443623
29.4 0.00491333068
29.5 0.00503947737
29.6 0.00490139024
29.7 0.00492369615
29.8 0.0045673365
29.9 0.00473688329
30.0 0.00490541452
30.1 0.00478899469
30.2 0.00478132817
30.3 0.00481367775
30.4 0.00469490668
30.5 0.00468827801
30.6 0.00466383254
30.7 0.00462844328
30.8 0.0048143955
30.9 0.00451946799
31.0 0.00452573853
31.1 0.0044960914
31.2 0.00487466752
31.3 0.0052268893
31.4 0.00545334814
31.5 0.00523256601
31.6 0.00499289289
31.7 0.00486643985
31.8 0.00469878984
31.9 0.00460930445
32.0 0.00464390714
32.1 0.00440938929
32.2 0.00418270321
32.3 0.00391475136
32.4 0.00386798278
32.5 0.00369372314
32.6 0.00385521094
32.7 0.00416240601
32.8 0.00422592429
32.9 0.00435225516
33.0 0.00444459444
33.1 0.00471366335
33.2 0.00496234558
33.3 0.00488269376
33.4 0.00504871716
33.5 0.00493441798
33.6 0.00508659888
33.7 0.00491143384
33.8 0.00481279304
33.9 0.00478414762
34.0 0.00463275854
34.1 0.00477876522
34.2 0.00458575061
34.3 0.00453561519
34.4 0.00419768343
34.5 0.00401360395
34.6 0.00402074549
34.7 0.00408746708
34.8 0.00420431206
34.9 0.00434757336
35.0 0.00442526974
35.1 0.00444250658
35.2 0.00491847727
35.3 0.00492927137
35.4 0.00470350961
35.5 0.00449413253
35.6 0.00420368374
35.7 0.00425072775
35.8 0.0040440756
35.9 0.00433944036
36.0 0.00447290072
36.1 0.00432593182
36.2 0.0043103113
36.3 0.00421652447
36.4 0.00386338012
36.5 0.00381940167
36.6 0.00378675604
36.7 0.00388377716
36.8 0.00409385469
36.9 0.00395949409
37.0 0.00385429867
37.1 0.00363988525
37.2 0.0038699588
37.3 0.00400512152
37.4 0.00400797709
37.5 0.00383998289
37.6 0.00382267382
37.7 0.00377025075
37.8 0.00353308562
37.9 0.00356288249
38.0 0.00351857532
38.1 0.00361652418
38.2 0.00359913587
38.3 0.00338369655
38.4 0.00313038933
38.5 0.00301752223
38.6 0.0031560483
38.7 0.00324905886
38.8 0.00324914149
38.9 0.00313505915
39.0 0.00318421514
39.1 0.0032257064
39.2 0.00322473732
39.3 0.00321812246
39.4 0.00306307564
39.5 0.00309464891
39.6 0.00312068311
39.7 0.0032634349
39.8 0.00324353533
39.9 0.00332977781
40.0 0.00341179459
40.1 0.00326731462
40.2 0.00323424559
40.3 0.00309564033
40.4 0.00302190798
40.5 0.00296660881
40.6 0.00313647571
40.7 0.00354061618
40.8 0.00340661188
40.9 0.00345693146
41.0 0.00330047494
41.1 0.003886915
41.2 0.00403238469
41.3 0.00387689552
41.4 0.00394526431
41.5 0.00395916879
41.6 0.00387480418
41.7 0.00372178153
41.8 0.00349971706
41.9 0.00338993963
42.0 0.00308835075
42.1 0.00294874889
42.2 0.00315541142
42.3 0.00316981328
42.4 0.00299394084
42.5 0.00283951883
42.6 0.00288491559
42.7 0.00274751865
42.8 0.00267046257
42.9 0.00273939082
43.0 0.00283749803
43.1 0.00285337332
43.2 0.00311836801
43.3 0.00313240322
43.4 0.00321058673
43.5 0.00324880754
43.6 0.00322190408
43.7 0.0031313326
43.8 0.00316805759
43.9 0.00320550387
44.0 0.0032192585
44.1 0.00340322784
44.2 0.00327974567
44.3 0.00331303155
44.4 0.00339049562
44.5 0.00345077792
44.6 0.00351451311
44.7 0.00348024438
44.8 0.00362959717
44.9 0.00364390093
45.0 0.00372218778
45.1 0.00369583338
45.2 0.0039666391
45.3 0.00398680204
45.4 0.00384064214
45.5 0.00387126697
45.6 0.00384064557
45.7 0.00359217856
45.8 0.00378153542
45.9 0.0040583208
46.0 0.00396802647
46.1 0.00385942119
46.2 0.00373332782
46.3 0.00361372886
46.4 0.00355673931
46.5 0.00363583852
46.6 0.00348969066
46.7 0.00340985299
46.8 0.00340759469
46.9 0.0034162871
47.0 0.00337600252
47.1 0.00345364901
47.2 0.00326516995
47.3 0.00320214565
47.4 0.00312281057
47.5 0.00312300678
47.6 0.00299332635
47.7 0.00297550946
47.8 0.00288211678
47.9 0.00292204856
48.0 0.00291972828
48.1 0.00287669135
48.2 0.00279583644
48.3 0.00280795761
48.4 0.00301901456
48.5 0.0027167699
48.6 0.00259614499
48.7 0.0024805738
48.8 0.00266047577
48.9 0.00256698842
49.0 0.00284582893
49.1 0.00270635104
49.2 0.00254896155
49.3 0.00237596014
49.4 0.00231266735
49.5 0.00244713639
49.6 0.00248735386
49.7 0.00239100578
49.8 0.00244635147
49.9 0.00246929257
50.0 0.0024381152

FGF = 87.19675782495844

0.1 0.000221900328064
0.2 0.898720601912
0.3 0.82605896809
0.4 0.74313846284
0.5 0.66061887984
0.6 0.58726159251
0.7 0.4788724657
0.8 0.40112261579
0.9 0.36556245215
1.0 0.31466817344
1.1 0.27608393068
1.2 0.23347700422
1.3 0.20843743773
1.4 0.18273955578
1.5 0.1705241639
1.6 0.14943702237
1.7 0.13467336197
1.8 0.1136591608
1.9 0.10156762279
2.0 0.09047348268
2.1 0.08436889972
2.2 0.0797358028
2.3 0.06854369694
2.4 0.06516196649
2.5 0.05627509131
2.6 0.0561776829
2.7 0.05531147467
2.8 0.04480992007
2.9 0.04596603012
3.0 0.04149354149
3.1 0.04161509541
3.2 0.03504825889
3.3 0.03540231003
3.4 0.03464334464
3.5 0.03236836505
3.6 0.02931147138
3.7 0.02719259816
3.8 0.02795079809
3.9 0.03133512602
4.0 0.02537357175
4.1 0.02161043795
4.2 0.02512623065
4.3 0.02198743721
4.4 0.02233043794
4.5 0.01964214946
4.6 0.02227534016
4.7 0.01911203925
4.8 0.02006035165
4.9 0.0169917378
5.0 0.01482124474
5.1 0.01436764865
5.2 0.01616745139
5.3 0.0160007844
5.4 0.01603640783
5.5 0.01630793887
5.6 0.01360640243
5.7 0.01328707614
5.8 0.01272681955
5.9 0.01305923067
6.0 0.01161386287
6.1 0.01175603096
6.2 0.01380918779
6.3 0.0121955338
6.4 0.01192631357
6.5 0.01314059067
6.6 0.01064996399
6.7 0.0102504714
6.8 0.01029609554
6.9 0.01058241458
7.0 0.01070562883
7.1 0.01162093214
7.2 0.0097920887
7.3 0.01048296091
7.4 0.00940150996
7.5 0.00838674714
7.6 0.00822288317
7.7 0.00805136002
7.8 0.00834155436
7.9 0.00661609718
8.0 0.00724369435
8.1 0.00948333604
8.2 0.00732472968
8.3 0.00839338903
8.4 0.00828172725
8.5 0.00732274097
8.6 0.00758544298
8.7 0.00627589532
8.8 0.00809452137
8.9 0.00692210438
9.0 0.00584576342
9.1 0.00657032549
9.2 0.00741020607
9.3 0.00572005653
9.4 0.00591366636
9.5 0.00632388741
9.6 0.00664181576
9.7 0.00587705063
9.8 0.00617937323
9.9 0.0060135134
10.0 0.00583640907
10.1 0.00546827309
10.2 0.0061711547
10.3 0.00562993751
10.4 0.0053178719
10.5 0.00630531851
10.6 0.00533887044
10.7 0.00522520967
10.8 0.00520175133
10.9 0.0055377298
11.0 0.0047798821
11.1 0.00536091669
11.2 0.0061222096
11.3 0.00512732177
11.4 0.00512785526
11.5 0.00572077457
11.6 0.00457193162
11.7 0.00402674215
11.8 0.0043639123
11.9 0.00383437544
12.0 0.00441763913
12.1 0.00402923165
12.2 0.00364951691
12.3 0.00394293466
12.4 0.00462902725
12.5 0.00451745861
12.6 0.00367722064
12.7 0.00449601142
12.8 0.00334090923
12.9 0.00425684115
13.0 0.00487319822
13.1 0.00343265173
13.2 0.00393833175
13.3 0.00326532583
13.4 0.00430488909
13.5 0.00369695351
13.6 0.0036326275
13.7 0.00390860445
13.8 0.0033350845
13.9 0.00418887394
14.0 0.00384142341
14.1 0.00284574113
14.2 0.00284095323
14.3 0.0029329657
14.4 0.00363983445
14.5 0.00289512615
14.6 0.0029682799
14.7 0.00242127911
14.8 0.00283637747
14.9 0.00292672902
15.0 0.00311669052
15.1 0.00286522088
15.2 0.00271773328
15.3 0.00330573286
15.4 0.00318596068
15.5 0.00255633566
15.6 0.00304588543
15.7 0.00277195632
15.8 0.00267419626
15.9 0.0023872563
16.0 0.00244298984
16.1 0.00238394806
16.2 0.00223071028
16.3 0.00192983576
16.4 0.00186800881
16.5 0.00191631771
16.6 0.00276195233
16.7 0.00191152655
16.8 0.00208034108
16.9 0.00268025495
17.0 0.001976827
17.1 0.00253828226
17.2 0.00280928294
17.3 0.00208571331
17.4 0.00218818869
17.5 0.00228668665
17.6 0.00199124163
17.7 0.00247391197
17.8 0.00208941634
17.9 0.00181253951
18.0 0.00161473115
18.1 0.00204490233
18.2 0.00186916264
18.3 0.00158713341
18.4 0.00184211382
18.5 0.00184310754
18.6 0.00214338871
18.7 0.00156365894
18.8 0.00180987333
18.9 0.00168499631
19.0 0.0016489835
19.1 0.00178151841
19.2 0.00192535511
19.3 0.00171799656
19.4 0.00172552719
19.5 0.00211920605
19.6 0.00165354398
19.7 0.00216223985
19.8 0.00178137772
19.9 0.00155816915
20.0 0.00183106084
20.1 0.00168555295
20.2 0.00184140864
20.3 0.00185223537
20.4 0.0013347799
20.5 0.00143449269
20.6 0.00149400696
20.7 0.00176308064
20.8 0.00254644737
20.9 0.00200312706
21.0 0.00126010866
21.1 0.00210596182
21.2 0.00177043972
21.3 0.00194313656
21.4 0.00224688423
21.5 0.00189575709
21.6 0.00204180935
21.7 0.00191257239
21.8 0.00208232665
21.9 0.00159868832
22.0 0.00213934373
22.1 0.00204528856
22.2 0.00189956983
22.3 0.00214719317
22.4 0.00204157595
22.5 0.00229795631
22.6 0.00255185945
22.7 0.00207438722
22.8 0.00182567191
22.9 0.00169278219
23.0 0.00184824136
23.1 0.0017668988
23.2 0.00178578008
23.3 0.00141778937
23.4 0.00131693375
23.5 0.00155277007
23.6 0.00141317432
23.7 0.00171897684
23.8 0.00127280854
23.9 0.00133191531
24.0 0.00142567609
24.1 0.0017385176
24.2 0.00145829453
24.3 0.00111987742
24.4 0.00203829613
24.5 0.00126432276
24.6 0.00189509834
24.7 0.00198609265
24.8 0.0016328971
24.9 0.00141496049
25.0 0.00133801829
25.1 0.00158978874
25.2 0.00131023158
25.3 0.00174960971
25.4 0.00164727632
25.5 0.00226110604
25.6 0.00175835132
25.7 0.00165687607
25.8 0.00169166835
25.9 0.0011918202
26.0 0.00131656423
26.1 0.00138754544
26.2 0.00121552093
26.3 0.0018661882
26.4 0.00179113059
26.5 0.00127142416
26.6 0.00149770057
26.7 0.00105628487
26.8 0.00145873232
26.9 0.00140106278
27.0 0.00137624492
27.1 0.0016354046
27.2 0.00145697172
27.3 0.00155953966
27.4 0.00122170362
27.5 0.00124720465
27.6 0.0014301086
27.7 0.00118333499
27.8 0.00126743117
27.9 0.00167770879
28.0 0.00147596028
28.1 0.00128270139
28.2 0.0017510368
28.3 0.00137452302
28.4 0.00126939688
28.5 0.00164112077
28.6 0.00131637912
28.7 0.00151465541
28.8 0.00187660671
28.9 0.00125601124
29.0 0.00152641286
29.1 0.00144984347
29.2 0.00144798973
29.3 0.00106722729
29.4 0.00114287239
29.5 0.00120358608
29.6 0.00104078267
29.7 0.00119893889
29.8 0.00081716988
29.9 0.00106768694
30.0 0.00129868966
30.1 0.00151728503
30.2 0.00137207153
30.3 0.00109862962
30.4 0.00098555634
30.5 0.0015568479
30.6 0.00146913811
30.7 0.00101692268
30.8 0.00109835266
30.9 0.00075023623
31.0 0.0011057766
31.1 0.0009375881
31.2 0.00091898907
31.3 0.00065304309
31.4 0.00108974476
31.5 0.00102725447
31.6 0.00140512448
31.7 0.000996524469999
31.8 0.00128373825
31.9 0.0013486029
32.0 0.00125583712
32.1 0.00113155274
32.2 0.00108465592
32.3 0.0012346786
32.4 0.000972409229999
32.5 0.00082659152
32.6 0.00106203118
32.7 0.00104147558
32.8 0.00108553136
32.9 0.00126144203
33.0 0.00106793504
33.1 0.00103176797
33.2 0.000824652370001
33.3 0.00125662458
33.4 0.00098444893
33.5 0.00079648899
33.6 0.00090243917
33.7 0.00095328827
33.8 0.00093218817
33.9 0.00128492222
34.0 0.00074015055
34.1 0.00112030821
34.2 0.00107891032
34.3 0.000974727749999
34.4 0.00087656532
34.5 0.00068245286
34.6 0.000850469079999
34.7 0.000764457470001
34.8 0.00068819788
34.9 0.000696682369999
35.0 0.00086859247
35.1 0.00058786034
35.2 0.000910442300001
35.3 0.00073164819
35.4 0.000753571609999
35.5 0.0013643572
35.6 0.00110290543
35.7 0.00135199298
35.8 0.00060775133
35.9 0.000698883200001
36.0 0.00094178864
36.1 0.000818641239999
36.2 0.00079995992
36.3 0.0007296562
36.4 0.00072065492
36.5 0.00072150852
36.6 0.000906546430001
36.7 0.00070931141
36.8 0.0011234899
36.9 0.000976224689999
37.0 0.00099429022
37.1 0.0008891268
37.2 0.00086409626
37.3 0.00085494715
37.4 0.00103136303
37.5 0.000853210399999
37.6 0.000586923760001
37.7 0.00120316899
37.8 0.00077346189
37.9 0.00102081012
38.0 0.000743417779999
38.1 0.000753997690001
38.2 0.00112732721
38.3 0.00120645352
38.4 0.00081812574
38.5 0.00070319872
38.6 0.00091155357
38.7 0.00072793359
38.8 0.000648980810001
38.9 0.000743949999999
39.0 0.00109568133
39.1 0.00068030402
39.2 0.00073309885
39.3 0.000786983800001
39.4 0.00071417457
39.5 0.00062047678
39.6 0.00059676905
39.7 0.00077402309
39.8 0.00052289284
39.9 0.000696381559999
40.0 0.000867870000001
40.1 0.00094090805
40.2 0.00083991874
40.3 0.00082008946
40.4 0.00102878754
40.5 0.000512258940001
40.6 0.00101239447
40.7 0.00066477811
40.8 0.000587217570001
40.9 0.00073003871
41.0 0.00048020427
41.1 0.00098749891
41.2 0.000914250040001
41.3 0.00075906853
41.4 0.0011575617
41.5 0.000664405309999
41.6 0.00073456506
41.7 0.00086854047
41.8 0.00076518708
41.9 0.00066586253
42.0 0.00074548762
42.1 0.00059089619
42.2 0.000814952479999
42.3 0.00094936169
42.4 0.00071958793
42.5 0.00050537108
42.6 0.000650923960001
42.7 0.000714341119999
42.8 0.000637806420001
42.9 0.00065916421
43.0 0.000745259379999
43.1 0.00066830689
43.2 0.00059306415
43.3 0.00076548075
43.4 0.00089384541
43.5 0.00088474257
43.6 0.000927944070001
43.7 0.000711963459999
43.8 0.00094732541
43.9 0.00051515909
44.0 0.000774845830001
44.1 0.00079693894
44.2 0.00058157281
44.3 0.00089648402
44.4 0.00062411811
44.5 0.00067273882
44.6 0.00056518817
44.7 0.00043105592
44.8 0.00105624458
44.9 0.00104514533
45.0 0.00067377495
45.1 0.00085793229
45.2 0.000604228410001
45.3 0.000786479289999
45.4 0.000602994300001
45.5 0.000659410449999
45.6 0.000656456310001
45.7 0.000374704749999
45.8 0.00080243857
45.9 0.00070245454
46.0 0.00034938625
46.1 0.000504705309999
46.2 0.00067512676
46.3 0.00033972036
46.4 0.00061371247
46.5 0.000784896230001
46.6 0.000685945769999
46.7 0.00074937964
46.8 0.00068453684
46.9 0.00070648338
47.0 0.000571128600001
47.1 0.00061951978
47.2 0.00060885502
47.3 0.00059748966
47.4 0.000780954089999
47.5 0.00100267201
47.6 0.00055612062
47.7 0.00074485187
47.8 0.00081995576
47.9 0.000550245750001
48.0 0.00063763031
48.1 0.0007308216
48.2 0.00053514721
48.3 0.000636617309999
48.4 0.0007254918
48.5 0.00056093878
48.6 0.000826712500001
48.7 0.00047090476
48.8 0.000534594429999
48.9 0.00059546238
49.0 0.00109538837
49.1 0.00058363294
49.2 0.000683188889999
49.3 0.000750022970001
49.4 0.00047481219
49.5 0.00055069512
49.6 0.00055821931
49.7 0.00056882751
49.8 0.00076126235
49.9 0.000661525150001
50.0 0.000776809549999

FGF = 65.04787541542998

0.1 0.000677202628371
0.2 0.672352471572
0.3 0.61905900512
0.4 0.55795753394
0.5 0.49700277328
0.6 0.44255199983
0.7 0.36233333262
0.8 0.30502207588
0.9 0.27889087745
1.0 0.24095015503
1.1 0.21234331551
1.2 0.18055328129
1.3 0.16195625062
1.4 0.14294883057
1.5 0.13362616883
1.6 0.11781704234
1.7 0.10678066478
1.8 0.09086579693
1.9 0.08158930295
2.0 0.07323563662
2.1 0.06887737451
2.2 0.06558126844
2.3 0.05728966112
2.4 0.0545879231
2.5 0.0477231305
2.6 0.04762915173
2.7 0.0468684594
2.8 0.03890391393
2.9 0.03967580287
3.0 0.03618886677
3.1 0.03630860361
3.2 0.03132434208
3.3 0.03173723608
3.4 0.0313687654
3.5 0.02973602011
3.6 0.02749828998
3.7 0.02574502163
3.8 0.02616975369
3.9 0.02843343697
4.0 0.02378824083
4.1 0.02115462665
4.2 0.02371284947
4.3 0.02137258014
4.4 0.02168853201
4.5 0.01944368847
4.6 0.02141514911
4.7 0.01914683569
4.8 0.01980287063
4.9 0.01737560483
5.0 0.01546306599
5.1 0.015090649
5.2 0.01659604488
5.3 0.01642991832
5.4 0.01658811888
5.5 0.01675541574
5.6 0.01479474909
5.7 0.01429780028
5.8 0.01361279707
5.9 0.01386800219
6.0 0.01281256475
6.1 0.0127200968
6.2 0.01409752789
6.3 0.01282805253
6.4 0.01261127954
6.5 0.01316637662
6.6 0.01134421593
6.7 0.01111493054
6.8 0.01111756742
6.9 0.01121321798
7.0 0.01129344892
7.1 0.0119544809
7.2 0.01050549721
7.3 0.01084808673
7.4 0.01014864715
7.5 0.00941273899
7.6 0.00926947446
7.7 0.00918638188
7.8 0.00943826244
7.9 0.0081939251
8.0 0.00866003929
8.1 0.01037463286
8.2 0.0087086731
8.3 0.00953137048
8.4 0.00942889125
8.5 0.00856401916
8.6 0.00894587013
8.7 0.00813934704
8.8 0.00946215835
8.9 0.00846656568
9.0 0.00749984177
9.1 0.00794715881
9.2 0.008477095
9.3 0.00714840926
9.4 0.00740852126
9.5 0.00766649302
9.6 0.00791720577
9.7 0.00740455842
9.8 0.00754214839
9.9 0.00711964123
10.0 0.00697263514
10.1 0.00669026882
10.2 0.00725013384
10.3 0.00685084356
10.4 0.00658531719
10.5 0.0075231931
10.6 0.00691687976
10.7 0.00691509857
10.8 0.00696586844
10.9 0.00721826801
11.0 0.00648296204
11.1 0.00695502433
11.2 0.00737214635
11.3 0.00655033204
11.4 0.00640348277
11.5 0.0067291622
11.6 0.00580829175
11.7 0.00541783894
11.8 0.00568810284
11.9 0.00526944728
12.0 0.00574149906
12.1 0.00545879607
12.2 0.00522618961
12.3 0.00538323955
12.4 0.00578008483
12.5 0.00578053789
12.6 0.00532226235
12.7 0.00594732441
12.8 0.00504016256
12.9 0.00564869227
13.0 0.00613945352
13.1 0.00489406344
13.2 0.00516365332
13.3 0.00471255231
13.4 0.00556285309
13.5 0.00518645991
13.6 0.00503090326
13.7 0.00517263842
13.8 0.00472188041
13.9 0.00535813242
14.0 0.00501845231
14.1 0.00427205458
14.2 0.00414138244
14.3 0.00417321803
14.4 0.00473092596
14.5 0.00403166072
14.6 0.00408254948
14.7 0.00380685401
14.8 0.00418248686
14.9 0.00451098085
15.0 0.00473684065
15.1 0.00442597667
15.2 0.004274292
15.3 0.00479708907
15.4 0.00478079971
15.5 0.00423599313
15.6 0.00444564287
15.7 0.00433648359
15.8 0.00418074459
15.9 0.00389150784
16.0 0.0040271802
16.1 0.00411106602
16.2 0.00391847999
16.3 0.0035647406
16.4 0.00339653093
16.5 0.00328281514
16.6 0.00393592882
16.7 0.00325824909
16.8 0.00340775945
16.9 0.00390206271
17.0 0.00343200672
17.1 0.00395539681
17.2 0.00420073376
17.3 0.00377826333
17.4 0.00378152094
17.5 0.00383386858
17.6 0.00355021137
17.7 0.0038964593
17.8 0.00354156963
17.9 0.00326618878
18.0 0.0030506043
18.1 0.00332132026
18.2 0.00313609178
18.3 0.00289190861
18.4 0.00310751029
18.5 0.0031221903
18.6 0.00335134978
18.7 0.00284474772
18.8 0.0029608893
18.9 0.00282233775
19.0 0.00291085272
19.1 0.00298626546
19.2 0.00315324034
19.3 0.00298735261
19.4 0.00300015992
19.5 0.00337273121
19.6 0.00308526966
19.7 0.00344679027
19.8 0.00311878858
19.9 0.00300683078
20.0 0.00309095055
20.1 0.0029902672
20.2 0.00301205193
20.3 0.00301281293
20.4 0.00267837986
20.5 0.00270198819
20.6 0.00270581743
20.7 0.00283042123
20.8 0.00344417343
20.9 0.00315393122
21.0 0.00267872354
21.1 0.00339180224
21.2 0.00304783316
21.3 0.00327281972
21.4 0.0035324541
21.5 0.00321983699
21.6 0.00325044516
21.7 0.00312928132
21.8 0.00315569487
21.9 0.00268569081
22.0 0.00303454789
22.1 0.00295014339
22.2 0.00285073655
22.3 0.00310277526
22.4 0.00290377473
22.5 0.00309180841
22.6 0.00327886016
22.7 0.00285099506
22.8 0.00285182337
22.9 0.00288761546
23.0 0.00301270004
23.1 0.00286904591
23.2 0.00290031339
23.3 0.00278243621
23.4 0.00268188579
23.5 0.0027888392
23.6 0.00264893783
23.7 0.00272579825
23.8 0.00243239245
23.9 0.00260290266
24.0 0.0026737599
24.1 0.00283576128
24.2 0.00257492369
24.3 0.00238300466
24.4 0.00304970769
24.5 0.00241749149
24.6 0.00274878553
24.7 0.00288403705
24.8 0.00259039944
24.9 0.00243043174
25.0 0.00234428779
25.1 0.00259993513
25.2 0.00240872066
25.3 0.00270355378
25.4 0.00250494987
25.5 0.0030677891
25.6 0.0027869311
25.7 0.00276246006
25.8 0.00272473215
25.9 0.00229937451
26.0 0.00244917245
26.1 0.00264716649
26.2 0.00253161024
26.3 0.00305866439
26.4 0.00305268892
26.5 0.00267941658
26.6 0.00291644594
26.7 0.00270541096
26.8 0.00292934794
26.9 0.00287228699
27.0 0.0028048911
27.1 0.0029344502
27.2 0.00277944096
27.3 0.00267436943
27.4 0.00234072124
27.5 0.00228583775
27.6 0.0024097896
27.7 0.00215599743
27.8 0.0023044771
27.9 0.00264101116
28.0 0.00255459751
28.1 0.0023554395
28.2 0.00265667595
28.3 0.0022413408
28.4 0.00213505653
28.5 0.00247970247
28.6 0.00238499208
28.7 0.00249470579
28.8 0.00282431048
28.9 0.00246057733
29.0 0.00269124829
29.1 0.00266220773
29.2 0.00252910912
29.3 0.00217268692
29.4 0.00226775952
29.5 0.00234632499
29.6 0.0022685454
29.7 0.00245027396
29.8 0.00212803032
29.9 0.00228675657
30.0 0.00242929482
30.1 0.00258084272
30.2 0.00248018041
30.3 0.00234925712
30.4 0.00230138431
30.5 0.00276901736
30.6 0.00266821443
30.7 0.00236976916
30.8 0.00243050538
30.9 0.00210943306
31.0 0.00229482919
31.1 0.00217097554
31.2 0.00218599923
31.3 0.00192481095
31.4 0.00223199549
31.5 0.00209781709
31.6 0.002298528
31.7 0.00191164843
31.8 0.00203282245
31.9 0.00207003417
32.0 0.00204732011
32.1 0.00202900373
32.2 0.00192035931
32.3 0.00199927163
32.4 0.00169769049
32.5 0.00147503955
32.6 0.00160141819
32.7 0.00156315055
32.8 0.00160955394
32.9 0.00165984619
33.0 0.00152568215
33.1 0.00171623833
33.2 0.00165719628
33.3 0.0020693924
33.4 0.00184243177
33.5 0.00178513619
33.6 0.00188597066
33.7 0.0017995248
33.8 0.00166693503
33.9 0.00186305888
34.0 0.00155659359
34.1 0.0019465803
34.2 0.00199791478
34.3 0.00190143942
34.4 0.00185099603
34.5 0.00169533451
34.6 0.00181328949
34.7 0.0018734723
34.8 0.00170288142
34.9 0.00164082977
35.0 0.00172549696
35.1 0.00146005827
35.2 0.00168869838
35.3 0.0016181992
35.4 0.00158575306
35.5 0.00212741393
35.6 0.00195552966
35.7 0.0021406
35.8 0.00162785795
35.9 0.00164936213
36.0 0.00193284399
36.1 0.00176806444
36.2 0.00176194835
36.3 0.00167287962
36.4 0.00166784015
36.5 0.00167675478
36.6 0.0017361931
36.7 0.00159004238
36.8 0.001832854
36.9 0.00173169722
37.0 0.00176038392
37.1 0.00167739972
37.2 0.00162654569
37.3 0.00161395231
37.4 0.00166749196
37.5 0.00145596151
37.6 0.00124506612
37.7 0.00171096674
37.8 0.00135702426
37.9 0.00155505622
38.0 0.00127644899
38.1 0.00125083787
38.2 0.00147856618
38.3 0.0015753151
38.4 0.00136660837
38.5 0.00129111148
38.6 0.00147199135
38.7 0.00134066794
38.8 0.00132130649
38.9 0.00135108703
39.0 0.00162504724
39.1 0.00130675273
39.2 0.00143928286
39.3 0.00153549171
39.4 0.00156325643
39.5 0.0014934127
39.6 0.00145244121
39.7 0.00150119742
39.8 0.00125720712
39.9 0.00137491664
40.0 0.00159194246
40.1 0.00183504968
40.2 0.00175561098
40.3 0.00174568286
40.4 0.00182906652
40.5 0.00149232589
40.6 0.00178530702
40.7 0.00158692471
40.8 0.00144672842
40.9 0.00150295088
41.0 0.00141997437
41.1 0.00177096367
41.2 0.00169682745
41.3 0.00158870239
41.4 0.00201995518
41.5 0.00152145029
41.6 0.00154416435
41.7 0.00167672572
41.8 0.00157499697
41.9 0.00146588261
42.0 0.0015656019
42.1 0.00141641416
42.2 0.0015216951
42.3 0.00164872637
42.4 0.00151086286
42.5 0.00140423526
42.6 0.00147226206
42.7 0.00151207241
42.8 0.0014433474
42.9 0.00143684906
43.0 0.00154524449
43.1 0.00140702961
43.2 0.00131360878
43.3 0.00147165502
43.4 0.00165330677
43.5 0.00171104489
43.6 0.00172924937
43.7 0.00163054394
43.8 0.00183783769
43.9 0.00153317814
44.0 0.00168231293
44.1 0.00166334043
44.2 0.00148759119
44.3 0.0017699049
44.4 0.00156452945
44.5 0.00159835697
44.6 0.00163577277
44.7 0.00158404619
44.8 0.00198315026
44.9 0.00194565765
45.0 0.00157398029
45.1 0.00161412348
45.2 0.00134493236
45.3 0.00150300666
45.4 0.00131791847
45.5 0.00135633306
45.6 0.00143711175
45.7 0.00120473991
45.8 0.0015387104
45.9 0.00152025025
46.0 0.00123233947
46.1 0.00133441858
46.2 0.00139168962
46.3 0.00108252684
46.4 0.00134982069
46.5 0.0014992504
46.6 0.00144042897
46.7 0.00149254515
46.8 0.0014335694
46.9 0.00145986789
47.0 0.00132648941
47.1 0.0013684744
47.2 0.00143784853
47.3 0.00151062088
47.4 0.00158661894
47.5 0.00174871569
47.6 0.00148524856
47.7 0.00168358595
47.8 0.00171616151
47.9 0.00151037573
48.0 0.0016695831
48.1 0.00170872714
48.2 0.00152758776
48.3 0.00148206042
48.4 0.00153202686
48.5 0.0014708982
48.6 0.00160432193
48.7 0.00131561508
48.8 0.00138420332
48.9 0.0014107645
49.0 0.00178632336
49.1 0.00136540583
49.2 0.00137242638
49.3 0.00146224208
49.4 0.00121695423
49.5 0.00125886874
49.6 0.00124910895
49.7 0.00132378556
49.8 0.00143763394
49.9 0.00139491283
50.0 0.0016272257

FGF = 42.35266429258301

0.1 0.000777004563134
0.2 0.439681872422
0.3 0.40686148149
0.4 0.368771282835
0.5 0.33058004318
0.6 0.29636164754
0.7 0.2447948644
0.8 0.20854701364
0.9 0.191980845
1.0 0.1677293322
1.1 0.14969946947
1.2 0.12915137598
1.3 0.11637929465
1.4 0.10340782543
1.5 0.09746699114
1.6 0.08708356475
1.7 0.07951552104
1.8 0.06906065945
1.9 0.06336873463
2.0 0.05787808548
2.1 0.05496225341
2.2 0.05272669659
2.3 0.04721639538
2.4 0.04510538809
2.5 0.0407098816
2.6 0.04039596596
2.7 0.03970333811
2.8 0.03451303642
2.9 0.03512457881
3.0 0.03295735327
3.1 0.03292939232
3.2 0.0298979638
3.3 0.03002373941
3.4 0.02943186658
3.5 0.02808107624
3.6 0.02652494476
3.7 0.02538440752
3.8 0.02544313199
3.9 0.02699784941
4.0 0.02396270545
4.1 0.02183401198
4.2 0.02345402976
4.3 0.0217924916
4.4 0.02174164738
4.5 0.02030479523
4.6 0.02094266494
4.7 0.01874282623
4.8 0.01908174439
4.9 0.01766474881
5.0 0.01664868259
5.1 0.01631734446
5.2 0.01757621032
5.3 0.01777890515
5.4 0.01764993002
5.5 0.01742557713
5.6 0.01626941163
5.7 0.0162209285
5.8 0.01598343186
5.9 0.01605873249
6.0 0.01505478814
6.1 0.0149136776
6.2 0.01588952677
6.3 0.01518216036
6.4 0.01453830259
6.5 0.01473399224
6.6 0.01321934922
6.7 0.01309839605
6.8 0.01354219134
6.9 0.01359621194
7.0 0.01360336896
7.1 0.01412926682
7.2 0.01310459814
7.3 0.0134937173
7.4 0.0132075052
7.5 0.01289483251
7.6 0.01265865042
7.7 0.01239290652
7.8 0.01227799589
7.9 0.01156777327
8.0 0.01188595444
8.1 0.01280188202
8.2 0.01160495553
8.3 0.01192957024
8.4 0.01202353361
8.5 0.01126655123
8.6 0.01126643117
8.7 0.01062999162
8.8 0.01139341933
8.9 0.01065931329
9.0 0.01005102267
9.1 0.01014782572
9.2 0.01065048307
9.3 0.00999464758
9.4 0.00983877048
9.5 0.00989136673
9.6 0.00992805991
9.7 0.00955266252
9.8 0.00990343607
9.9 0.00975000484
10.0 0.00988889544
10.1 0.00981595655
10.2 0.00999108659
10.3 0.00959775146
10.4 0.00976654779
10.5 0.01029777827
10.6 0.00960573934
10.7 0.00933300348
10.8 0.00896449281
10.9 0.00884927264
11.0 0.00834203091
11.1 0.00849395484
11.2 0.00898712936
11.3 0.00863390172
11.4 0.00870399132
11.5 0.00912316946
11.6 0.00860265127
11.7 0.00817682509
11.8 0.00811116119
11.9 0.0078425852
12.0 0.00787487471
12.1 0.00754946537
12.2 0.00757109898
12.3 0.00772032266
12.4 0.00787508562
12.5 0.00749874153
12.6 0.00709476106
12.7 0.00733844022
12.8 0.0068928096
12.9 0.00741427062
13.0 0.00759994097
13.1 0.00692237865
13.2 0.00709567131
13.3 0.00652753048
13.4 0.00714852975
13.5 0.00697254135
13.6 0.00708990424
13.7 0.00721908757
13.8 0.00700029714
13.9 0.00767896819
14.0 0.00752456096
14.1 0.00707024311
14.2 0.00711811558
14.3 0.00695358681
14.4 0.007229029
14.5 0.00674476258
14.6 0.00678681097
14.7 0.00664121135
14.8 0.00677439889
14.9 0.00680286732
15.0 0.00668748362
15.1 0.00643411438
15.2 0.00634791955
15.3 0.00652777729
15.4 0.00676505546
15.5 0.00663464509
15.6 0.00668150898
15.7 0.00645757543
15.8 0.00659003162
15.9 0.00622983407
16.0 0.00601628214
16.1 0.00601445926
16.2 0.0058675243
16.3 0.00590511683
16.4 0.00593492932
16.5 0.00587628153
16.6 0.00619722871
16.7 0.00550649827
16.8 0.00550561278
16.9 0.00572265636
17.0 0.00513280133
17.1 0.0053197141
17.2 0.00546564739
17.3 0.00527636987
17.4 0.00521161861
17.5 0.00531160972
17.6 0.00527056148
17.7 0.00553573818
17.8 0.00535937599
17.9 0.00506340957
18.0 0.00487117749
18.1 0.00512950825
18.2 0.00537011541
18.3 0.00512835994
18.4 0.00503202066
18.5 0.00496329537
18.6 0.00509971867
18.7 0.00508648926
18.8 0.0055541514
18.9 0.00528249896
19.0 0.00519724725
19.1 0.00514264802
19.2 0.00525991799
19.3 0.00515102299
19.4 0.00505412314
19.5 0.00506174902
19.6 0.00496229069
19.7 0.00533547085
19.8 0.00497876128
19.9 0.00470505935
20.0 0.00488161493
20.1 0.00468710711
20.2 0.00481432121
20.3 0.00467920942
20.4 0.00424691142
20.5 0.0043442771
20.6 0.00460392598
20.7 0.00472310062
20.8 0.00502902176
20.9 0.00470123619
21.0 0.00431502334
21.1 0.00468642106
21.2 0.00452739353
21.3 0.00466855599
21.4 0.00475567675
21.5 0.00448726429
21.6 0.00446329879
21.7 0.00440205694
21.8 0.00437766302
21.9 0.00402348565
22.0 0.00424377797
22.1 0.0040330032
22.2 0.00406146136
22.3 0.00423499025
22.4 0.00417207033
22.5 0.00430867133
22.6 0.00458041853
22.7 0.00443299179
22.8 0.00444335861
22.9 0.00441009219
23.0 0.00428178775
23.1 0.00415701562
23.2 0.00408497281
23.3 0.00382310669
23.4 0.00378988041
23.5 0.00372389399
23.6 0.00355333597
23.7 0.00371321038
23.8 0.0034727302
23.9 0.00361943433
24.0 0.00391910657
24.1 0.00417919566
24.2 0.00430361204
24.3 0.00428906299
24.4 0.00470682978
24.5 0.00422393339
24.6 0.00465647368
24.7 0.00474066068
24.8 0.00455377959
24.9 0.00423871867
25.0 0.00405979293
25.1 0.00399636887
25.2 0.00374710973
25.3 0.00404267219
25.4 0.00387615549
25.5 0.00413168042
25.6 0.00389090789
25.7 0.00385930386
25.8 0.00370833787
25.9 0.00341014426
26.0 0.00351592657
26.1 0.00382209358
26.2 0.00366506968
26.3 0.00391249628
26.4 0.00375234403
26.5 0.00345581702
26.6 0.00339904099
26.7 0.00343717084
26.8 0.00368693744
26.9 0.00372817455
27.0 0.00353265935
27.1 0.00344220719
27.2 0.00341922314
27.3 0.00349598098
27.4 0.00348888399
27.5 0.00349220303
27.6 0.0037061665
27.7 0.00362457897
27.8 0.00372901267
27.9 0.00403002659
28.0 0.00399615104
28.1 0.0041285484
28.2 0.00444407818
28.3 0.00409635273
28.4 0.00399447568
28.5 0.00394756234
28.6 0.00360039867
28.7 0.00367708352
28.8 0.00391084958
28.9 0.00360520088
29.0 0.0038130265
29.1 0.00367073627
29.2 0.00373731194
29.3 0.00341835722
29.4 0.00329186269
29.5 0.00325685093
29.6 0.00304305944
29.7 0.00293353421
29.8 0.00268443981
29.9 0.00285614007
30.0 0.00306557648
30.1 0.00336714764
30.2 0.00335833971
30.3 0.00328461698
30.4 0.00343743453
30.5 0.00380017756
30.6 0.00377796314
30.7 0.00354722799
30.8 0.00351086338
30.9 0.00336314582
31.0 0.0034879282
31.1 0.00323221021
31.2 0.00313719057
31.3 0.00291204748
31.4 0.0031690426
31.5 0.00316858823
31.6 0.00346991019
31.7 0.00352587342
31.8 0.00377669749
31.9 0.0035904316
32.0 0.00327104005
32.1 0.00312611866
32.2 0.00324970117
32.3 0.00340842758
32.4 0.0033306578
32.5 0.00329742428
32.6 0.00333012469
32.7 0.00329811519
32.8 0.00358949842
32.9 0.00374305425
33.0 0.00359965617
33.1 0.00348025106
33.2 0.00321923063
33.3 0.00346008341
33.4 0.00322635325
33.5 0.00308993719
33.6 0.00300565577
33.7 0.00296208981
33.8 0.00293781175
33.9 0.00321824498
34.0 0.00289654145
34.1 0.00309250409
34.2 0.00298554967
34.3 0.00286819523
34.4 0.00271379253
34.5 0.0024946814
34.6 0.00245875398
34.7 0.00241500307
34.8 0.0023129999
34.9 0.00225921315
35.0 0.0023816365
35.1 0.00237705181
35.2 0.0026484623
35.3 0.00269525255
35.4 0.0026396773
35.5 0.00293829813
35.6 0.00272616177
35.7 0.00289276024
35.8 0.00259963371
35.9 0.00266700196
36.0 0.00264671393
36.1 0.00260570159
36.2 0.00260651558
36.3 0.00263613318
36.4 0.00260526441
36.5 0.00263319822
36.6 0.00292915166
36.7 0.00267291202
36.8 0.00273052259
36.9 0.00267810283
37.0 0.00266264266
37.1 0.00266138002
37.2 0.002541459
37.3 0.00253437952
37.4 0.00285782539
37.5 0.00283184329
37.6 0.00277096679
37.7 0.00295816769
37.8 0.00275963694
37.9 0.00274457109
38.0 0.00267272286
38.1 0.00262263347
38.2 0.00281659974
38.3 0.00290905281
38.4 0.00285602239
38.5 0.00295980531
38.6 0.00295487278
38.7 0.00288860936
38.8 0.00276799321
38.9 0.00280166662
39.0 0.00305167248
39.1 0.0029552351
39.2 0.00285164136
39.3 0.00272544491
39.4 0.00268633721
39.5 0.00260658707
39.6 0.00256905157
39.7 0.00258426828
39.8 0.0024153654
39.9 0.0026130203
40.0 0.00274649566
40.1 0.00269091045
40.2 0.0026223728
40.3 0.00268418488
40.4 0.00257062406
40.5 0.00218526837
40.6 0.00241255416
40.7 0.00234769789
40.8 0.00235938467
40.9 0.00238792339
41.0 0.00221497347
41.1 0.00233199727
41.2 0.00233343458
41.3 0.0022105641
41.4 0.00251332066
41.5 0.00228710682
41.6 0.0022892465
41.7 0.00239561352
41.8 0.00251549863
41.9 0.00244051782
42.0 0.00245363498
42.1 0.00230089315
42.2 0.00237597293
42.3 0.00244113995
42.4 0.00218482427
42.5 0.00204712989
42.6 0.00215251094
42.7 0.0024137133
42.8 0.00247243983
42.9 0.002332467
43.0 0.00229264007
43.1 0.002073026
43.2 0.00203405015
43.3 0.00216625866
43.4 0.00222688564
43.5 0.00226332054
43.6 0.0022765451
43.7 0.00222932461
43.8 0.0023222622
43.9 0.00212789315
44.0 0.00230140484
44.1 0.00224091123
44.2 0.00206174893
44.3 0.00235698885
44.4 0.00236096258
44.5 0.00225150463
44.6 0.0022472497
44.7 0.00210044086
44.8 0.00223688169
44.9 0.00218056696
45.0 0.00196887049
45.1 0.00212795804
45.2 0.00194000652
45.3 0.00207566592
45.4 0.00218611405
45.5 0.00219788984
45.6 0.00221848048
45.7 0.00199099287
45.8 0.00222430759
45.9 0.00209921446
46.0 0.00192279495
46.1 0.00195141966
46.2 0.00195334876
46.3 0.00184736852
46.4 0.00194005389
46.5 0.00209613197
46.6 0.00204252139
46.7 0.00215948604
46.8 0.00203084457
46.9 0.00210840343
47.0 0.00213924053
47.1 0.00224306507
47.2 0.00224389627
47.3 0.00219752719
47.4 0.00227293944
47.5 0.00237563202
47.6 0.00207113854
47.7 0.00221601557
47.8 0.00245779667
47.9 0.00233326229
48.0 0.00242458607
48.1 0.00243153521
48.2 0.0023558306
48.3 0.00239754652
48.4 0.00239665378
48.5 0.00223634523
48.6 0.00222302776
48.7 0.00194849313
48.8 0.00189555627
48.9 0.00207887302
49.0 0.00234087972
49.1 0.00201483679
49.2 0.00226611642
49.3 0.00242192928
49.4 0.00228822312
49.5 0.00239324151
49.6 0.00230147212
49.7 0.00226643018
49.8 0.00236838902
49.9 0.00218087045
50.0 0.00222594554